{
  "title": "Virgin Wines – Norwich - New responsove website",
  "description": "Working within a team of designer and developers to completely re-design and rebuild the virgin wines website based in Norwich Norfolk UK",
  "keywords": "Virgin Wines, HTML5, PHP, CSS3, Sass, jQuery, JSON, Pattern Labs, Bower, responsive web design",
  "meta": {
    "ogTitle": "Virgin Wines – Norwich - New responsove website – Juan Fernandes – Freelance Website Designer Suffolk UK",
    "ogDesc": "Working within a team of designer and developers to completely re-design and rebuild the virgin wines website based in Norwich Norfolk UK",
    "lang": "https://www.juanfernandes.uk/work/virgin-wines"
  },
  "intro": {
    "class": "virginwines",
    "heading": "Virgin Wines",
    "subheading": "New Website"
  },
  "images": [
    {
      "img": "virginwines-newsite.jpg",
      "alt": "Virgin Wines - coming soon"
    }
  ]
}
